id_sede;id_colegio;nombre_sede;direccion
1;1;C.E. EL PITAL - SEDE PRINCIPAL;CORREG EL PITAL
2;2;I.E. TÉCNICO AGROPECUARIO EL LIMON - SEDE PRINCIPAL;CORREG EL LIMÓN
3;3;CENTRO EDUCATIVO EL REPARO;VDA EL REPARO
4;3;CENTRO EDUCATIVO BOCA PUERTA;VEREDA LA FLORIDA
5;3;CENTRO EDUCATIVO CEJA LARGA;VDA CEJA LARGA
