id_docente;id_usuario;nombres;apellidos;tipo_identificacion;identificacion;tipo_sangre;titulo;area_ensenanza
1;1;Nombre 4;Apellido 4;CC;1005677004;;;
2;2;Nombre 5;Apellido 5;CC;1005677005;;;
3;3;Nombre 6;Apellido 6;CC;1005677006;;;
